<?xml version="1.0"?>
<VTKFile type="PolyData" version="1.0" byte_order="LittleEndian" header_type="UInt64">
  <PolyData>
    <Piece NumberOfPoints="3" NumberOfVerts="0" NumberOfLines="0" NumberOfStrips="0" NumberOfPolys="1">
      <PointData>
      </PointData>
      <CellData>
      </CellData>
      <Points>
        <DataArray type="Float32" Name="Points" NumberOfComponents="3" format="binary" RangeMin="0.14142135834" RangeMax="0.24494897793">
          JAAAAAAAAADNzMw9zczMPc3MTD4AAAAAzczMPc3MTD7NzMw9zczMPQAAAAA=
        </DataArray>
      </Points>
      <Verts>
        <DataArray type="Int64" Name="connectivity" format="binary" RangeMin="1e+299" RangeMax="-1e+299">
          AAAAAAAAAAA=
        </DataArray>
        <DataArray type="Int64" Name="offsets" format="binary" RangeMin="1e+299" RangeMax="-1e+299">
          AAAAAAAAAAA=
        </DataArray>
      </Verts>
      <Lines>
        <DataArray type="Int64" Name="connectivity" format="binary" RangeMin="1e+299" RangeMax="-1e+299">
          AAAAAAAAAAA=
        </DataArray>
        <DataArray type="Int64" Name="offsets" format="binary" RangeMin="1e+299" RangeMax="-1e+299">
          AAAAAAAAAAA=
        </DataArray>
      </Lines>
      <Strips>
        <DataArray type="Int64" Name="connectivity" format="binary" RangeMin="1e+299" RangeMax="-1e+299">
          AAAAAAAAAAA=
        </DataArray>
        <DataArray type="Int64" Name="offsets" format="binary" RangeMin="1e+299" RangeMax="-1e+299">
          AAAAAAAAAAA=
        </DataArray>
      </Strips>
      <Polys>
        <DataArray type="Int64" Name="connectivity" format="binary" RangeMin="0" RangeMax="2">
          GAAAAAAAAAAAAAAAAAAAAAEAAAAAAAAAAgAAAAAAAAA=
        </DataArray>
        <DataArray type="Int64" Name="offsets" format="binary" RangeMin="3" RangeMax="3">
          CAAAAAAAAAADAAAAAAAAAA==
        </DataArray>
      </Polys>
    </Piece>
  </PolyData>
</VTKFile>
