<?xml version="1.0" encoding="UTF-8" standalone="no"?>
<svg
   xmlns:dc="http://purl.org/dc/elements/1.1/"
   xmlns:cc="http://creativecommons.org/ns#"
   xmlns:rdf="http://www.w3.org/1999/02/22-rdf-syntax-ns#"
   xmlns:svg="http://www.w3.org/2000/svg"
   xmlns="http://www.w3.org/2000/svg"
   xmlns:sodipodi="http://sodipodi.sourceforge.net/DTD/sodipodi-0.dtd"
   xmlns:inkscape="http://www.inkscape.org/namespaces/inkscape"
   inkscape:version="1.0 (4035a4fb49, 2020-05-01)"
   sodipodi:docname="pipeline_menu.svg"
   id="svg6"
   version="1.1"
   width="24"
   viewBox="0 0 24 24"
   height="24">
  <metadata
     id="metadata12">
    <rdf:RDF>
      <cc:Work
         rdf:about="">
        <dc:format>image/svg+xml</dc:format>
        <dc:type
           rdf:resource="http://purl.org/dc/dcmitype/StillImage" />
      </cc:Work>
    </rdf:RDF>
  </metadata>
  <defs
     id="defs10" />
  <sodipodi:namedview
     inkscape:current-layer="svg6"
     inkscape:window-maximized="1"
     inkscape:window-y="-8"
     inkscape:window-x="-8"
     inkscape:cy="12"
     inkscape:cx="12"
     inkscape:zoom="30.625"
     showgrid="false"
     id="namedview8"
     inkscape:window-height="1122"
     inkscape:window-width="1920"
     inkscape:pageshadow="2"
     inkscape:pageopacity="0"
     guidetolerance="10"
     gridtolerance="10"
     objecttolerance="10"
     borderopacity="1"
     bordercolor="#666666"
     pagecolor="#ffffff" />
  <path
     id="path2"
     fill="none"
     d="M0 0h24v24H0z" />
  <path
     style="fill:#d9d9d9;fill-opacity:1;stroke-width:0.82449"
     id="path4"
     d="m 12,8.7020408 c 0.906939,0 1.64898,-0.7420408 1.64898,-1.6489795 0,-0.9069389 -0.742041,-1.6489797 -1.64898,-1.6489797 -0.906939,0 -1.64898,0.7420408 -1.64898,1.6489797 0,0.9069387 0.742041,1.6489795 1.64898,1.6489795 z m 0,1.6489792 c -0.906939,0 -1.64898,0.742041 -1.64898,1.64898 0,0.906939 0.742041,1.64898 1.64898,1.64898 0.906939,0 1.64898,-0.742041 1.64898,-1.64898 0,-0.906939 -0.742041,-1.64898 -1.64898,-1.64898 z m 0,4.946939 c -0.906939,0 -1.64898,0.742041 -1.64898,1.64898 0,0.906938 0.742041,1.64898 1.64898,1.64898 0.906939,0 1.64898,-0.742042 1.64898,-1.64898 0,-0.906939 -0.742041,-1.64898 -1.64898,-1.64898 z" />
</svg>
