<?xml version="1.0" encoding="UTF-8" standalone="no"?>
<svg
   xmlns:dc="http://purl.org/dc/elements/1.1/"
   xmlns:cc="http://creativecommons.org/ns#"
   xmlns:rdf="http://www.w3.org/1999/02/22-rdf-syntax-ns#"
   xmlns:svg="http://www.w3.org/2000/svg"
   xmlns="http://www.w3.org/2000/svg"
   xmlns:sodipodi="http://sodipodi.sourceforge.net/DTD/sodipodi-0.dtd"
   xmlns:inkscape="http://www.inkscape.org/namespaces/inkscape"
   fill="#000000"
   height="24"
   viewBox="0 0 24 24"
   width="24"
   version="1.1"
   id="svg1504"
   sodipodi:docname="file_import_remote.bw.svg"
   inkscape:version="0.92.2 5c3e80d, 2017-08-06">
  <metadata
     id="metadata1510">
    <rdf:RDF>
      <cc:Work
         rdf:about="">
        <dc:format>image/svg+xml</dc:format>
        <dc:type
           rdf:resource="http://purl.org/dc/dcmitype/StillImage" />
        <dc:title></dc:title>
      </cc:Work>
    </rdf:RDF>
  </metadata>
  <defs
     id="defs1508" />
  <sodipodi:namedview
     pagecolor="#ffffff"
     bordercolor="#666666"
     borderopacity="1"
     objecttolerance="10"
     gridtolerance="10"
     guidetolerance="10"
     inkscape:pageopacity="0"
     inkscape:pageshadow="2"
     inkscape:window-width="1045"
     inkscape:window-height="761"
     id="namedview1506"
     showgrid="false"
     inkscape:zoom="9.8333333"
     inkscape:cx="12"
     inkscape:cy="12"
     inkscape:window-x="0"
     inkscape:window-y="0"
     inkscape:window-maximized="0"
     inkscape:current-layer="svg1504" />
  <path
     d="M0 0h24v24H0z"
     fill="none"
     id="path1500" />
  <path
     d="M 18.35339,10.305763 C 17.765593,7.3235593 15.146441,5.0847458 12,5.0847458 c -2.4981356,0 -4.6677966,1.4176271 -5.7483051,3.4922034 -2.6018644,0.2766101 -4.6245763,2.4808478 -4.6245763,5.1518648 0,2.861186 2.3252543,5.18644 5.1864407,5.18644 H 18.050847 c 2.385763,0 4.322034,-1.936271 4.322034,-4.322034 0,-2.282034 -1.772034,-4.131864 -4.019491,-4.287457 z M 16.322034,12.864407 12,17.186441 7.6779661,12.864407 H 10.271186 V 9.4067797 h 3.457628 v 3.4576273 z"
     id="path1502"
     style="fill:#d9d9d9;fill-opacity:1;stroke-width:0.86440676"
     inkscape:connector-curvature="0" />
</svg>
