<VTKFile type="Collection" version="1.0" byte_order="LittleEndian" header_type="UInt64">
<Collection>
<DataSet timestep="0" part="0" file="new_500.vtm"/>
<DataSet timestep="1" part="0" file="new_1000.vtm"/>
</Collection>
</VTKFile>
