<?xml version="1.0" encoding="UTF-8" standalone="no"?>
<svg
   xmlns:dc="http://purl.org/dc/elements/1.1/"
   xmlns:cc="http://creativecommons.org/ns#"
   xmlns:rdf="http://www.w3.org/1999/02/22-rdf-syntax-ns#"
   xmlns:svg="http://www.w3.org/2000/svg"
   xmlns="http://www.w3.org/2000/svg"
   xmlns:sodipodi="http://sodipodi.sourceforge.net/DTD/sodipodi-0.dtd"
   xmlns:inkscape="http://www.inkscape.org/namespaces/inkscape"
   id="svg8"
   version="1.1"
   viewBox="0 0 100.21678 73.758453"
   height="73.758453mm"
   width="100.21678mm"
   inkscape:version="1.0 (4035a4fb49, 2020-05-01)"
   sodipodi:docname="viewport_layout_schematic.svg">
  <defs
     id="defs2">
    <inkscape:perspective
       id="perspective4527"
       inkscape:persp3d-origin="110.19717 : -118.38293 : 1"
       inkscape:vp_z="210.56696 : -86.647804 : 1"
       inkscape:vp_y="179.95364 : 879.18116 : 1"
       inkscape:vp_x="29.48214 : -70.961794 : 1"
       sodipodi:type="inkscape:persp3d" />
    <marker
       inkscape:isstock="true"
       style="overflow:visible"
       id="Arrow2Send"
       refX="0"
       refY="0"
       orient="auto"
       inkscape:stockid="Arrow2Send">
      <path
         transform="matrix(-0.3,0,0,-0.3,0.69,0)"
         d="M 8.7185878,4.0337352 -2.2072895,0.01601326 8.7185884,-4.0017078 c -1.7454984,2.3720609 -1.7354408,5.6174519 -6e-7,8.035443 z"
         style="fill:#ffffff;fill-opacity:1;fill-rule:evenodd;stroke:#c4cfe6;stroke-width:0.625;stroke-linejoin:round;stroke-opacity:1"
         id="path902" />
    </marker>
    <marker
       inkscape:isstock="true"
       style="overflow:visible"
       id="Arrow2Sstart"
       refX="0"
       refY="0"
       orient="auto"
       inkscape:stockid="Arrow2Sstart">
      <path
         transform="matrix(0.3,0,0,0.3,-0.69,0)"
         d="M 8.7185878,4.0337352 -2.2072895,0.01601326 8.7185884,-4.0017078 c -1.7454984,2.3720609 -1.7354408,5.6174519 -6e-7,8.035443 z"
         style="fill:#ffffff;fill-opacity:1;fill-rule:evenodd;stroke:#c4cfe6;stroke-width:0.625;stroke-linejoin:round;stroke-opacity:1"
         id="path899" />
    </marker>
    <marker
       inkscape:isstock="true"
       style="overflow:visible"
       id="Arrow2Mstart"
       refX="0"
       refY="0"
       orient="auto"
       inkscape:stockid="Arrow2Mstart">
      <path
         transform="scale(0.6)"
         d="M 8.7185878,4.0337352 -2.2072895,0.01601326 8.7185884,-4.0017078 c -1.7454984,2.3720609 -1.7354408,5.6174519 -6e-7,8.035443 z"
         style="fill:#000000;fill-opacity:1;fill-rule:evenodd;stroke:#000000;stroke-width:0.625;stroke-linejoin:round;stroke-opacity:1"
         id="path893" />
    </marker>
    <marker
       inkscape:isstock="true"
       style="overflow:visible"
       id="Arrow1Sstart"
       refX="0"
       refY="0"
       orient="auto"
       inkscape:stockid="Arrow1Sstart">
      <path
         transform="matrix(0.2,0,0,0.2,1.2,0)"
         style="fill:#000000;fill-opacity:1;fill-rule:evenodd;stroke:#000000;stroke-width:1pt;stroke-opacity:1"
         d="M 0,0 5,-5 -12.5,0 5,5 Z"
         id="path881" />
    </marker>
    <marker
       inkscape:isstock="true"
       style="overflow:visible"
       id="Arrow1Mstart"
       refX="0"
       refY="0"
       orient="auto"
       inkscape:stockid="Arrow1Mstart">
      <path
         transform="matrix(0.4,0,0,0.4,4,0)"
         style="fill:#000000;fill-opacity:1;fill-rule:evenodd;stroke:#000000;stroke-width:1pt;stroke-opacity:1"
         d="M 0,0 5,-5 -12.5,0 5,5 Z"
         id="path875" />
    </marker>
    <marker
       inkscape:isstock="true"
       style="overflow:visible"
       refX="0"
       refY="0"
       orient="auto"
       inkscape:stockid="Arrow2Sstart9802"
       id="Arrow2Sstart9802">
      <path
         transform="matrix(0.3,0,0,0.3,-0.69,0)"
         d="M 8.7185878,4.0337352 -2.2072895,0.01601326 8.7185884,-4.0017078 c -1.7454984,2.3720609 -1.7354408,5.6174519 -6e-7,8.035443 z"
         style="fill:#c4cfe6;fill-opacity:1;fill-rule:evenodd;stroke:#c4cfe6;stroke-width:0.625;stroke-linejoin:round;stroke-opacity:1"
         id="path3857" />
    </marker>
    <marker
       inkscape:isstock="true"
       style="overflow:visible"
       refX="0"
       refY="0"
       orient="auto"
       inkscape:stockid="Arrow2Send1509"
       id="Arrow2Send1509">
      <path
         transform="matrix(-0.3,0,0,-0.3,0.69,0)"
         d="M 8.7185878,4.0337352 -2.2072895,0.01601326 8.7185884,-4.0017078 c -1.7454984,2.3720609 -1.7354408,5.6174519 -6e-7,8.035443 z"
         style="fill:#c4cfe6;fill-opacity:1;fill-rule:evenodd;stroke:#c4cfe6;stroke-width:0.625;stroke-linejoin:round;stroke-opacity:1"
         id="path3860" />
    </marker>
    <marker
       inkscape:isstock="true"
       style="overflow:visible"
       refX="0"
       refY="0"
       orient="auto"
       inkscape:stockid="Arrow2Sstart98022397"
       id="Arrow2Sstart98022397">
      <path
         transform="matrix(0.3,0,0,0.3,-0.69,0)"
         d="M 8.7185878,4.0337352 -2.2072895,0.01601326 8.7185884,-4.0017078 c -1.7454984,2.3720609 -1.7354408,5.6174519 -6e-7,8.035443 z"
         style="fill:#c4cfe6;fill-opacity:1;fill-rule:evenodd;stroke:#c4cfe6;stroke-width:0.625;stroke-linejoin:round;stroke-opacity:1"
         id="path4094" />
    </marker>
    <marker
       inkscape:isstock="true"
       style="overflow:visible"
       refX="0"
       refY="0"
       orient="auto"
       inkscape:stockid="Arrow2Send15096018"
       id="Arrow2Send15096018">
      <path
         transform="matrix(-0.3,0,0,-0.3,0.69,0)"
         d="M 8.7185878,4.0337352 -2.2072895,0.01601326 8.7185884,-4.0017078 c -1.7454984,2.3720609 -1.7354408,5.6174519 -6e-7,8.035443 z"
         style="fill:#c4cfe6;fill-opacity:1;fill-rule:evenodd;stroke:#c4cfe6;stroke-width:0.625;stroke-linejoin:round;stroke-opacity:1"
         id="path4097" />
    </marker>
  </defs>
  <sodipodi:namedview
     fit-margin-right="0.5"
     fit-margin-bottom="0.5"
     fit-margin-left="0.5"
     fit-margin-top="0.5"
     inkscape:window-maximized="1"
     inkscape:window-y="-11"
     inkscape:window-x="-11"
     inkscape:window-height="2066"
     inkscape:window-width="3840"
     inkscape:snap-object-midpoints="false"
     inkscape:snap-midpoints="true"
     inkscape:object-paths="true"
     showgrid="false"
     inkscape:document-rotation="0"
     inkscape:current-layer="layer1"
     inkscape:document-units="mm"
     inkscape:cy="194.02891"
     inkscape:cx="383.98901"
     inkscape:zoom="1.4"
     inkscape:pageshadow="2"
     inkscape:pageopacity="0.0"
     borderopacity="1.0"
     bordercolor="#666666"
     pagecolor="#ffffff"
     id="base">
    <inkscape:grid
       originy="-67.82018"
       originx="-24.919882"
       id="grid4507"
       type="xygrid" />
  </sodipodi:namedview>
  <metadata
     id="metadata5">
    <rdf:RDF>
      <cc:Work
         rdf:about="">
        <dc:format>image/svg+xml</dc:format>
        <dc:type
           rdf:resource="http://purl.org/dc/dcmitype/StillImage" />
        <dc:title></dc:title>
      </cc:Work>
    </rdf:RDF>
  </metadata>
  <g
     transform="translate(-24.919882,-67.820178)"
     id="layer1"
     inkscape:groupmode="layer"
     inkscape:label="Layer 1">
    <rect
       y="68.587769"
       x="25.687473"
       height="72.223274"
       width="98.681602"
       id="rect833"
       style="opacity:1;fill:#eaeaea;fill-opacity:1;stroke:none;stroke-width:0.535182;stroke-linejoin:bevel;stroke-miterlimit:4;stroke-dasharray:none;stroke-dashoffset:0;stroke-opacity:1" />
    <rect
       style="opacity:1;fill:#ffffff;fill-opacity:1;stroke:none;stroke-width:0.329502;stroke-linejoin:bevel;stroke-miterlimit:4;stroke-dasharray:none;stroke-dashoffset:0;stroke-opacity:1"
       id="rect835"
       width="40.701988"
       height="66.376122"
       x="28.666372"
       y="71.594925" />
    <rect
       y="68.587769"
       x="72.023369"
       height="72.223274"
       width="1.8898809"
       id="rect839"
       style="opacity:1;fill:#6a97f2;fill-opacity:1;stroke:none;stroke-width:0.564999;stroke-linejoin:bevel;stroke-miterlimit:4;stroke-dasharray:none;stroke-dashoffset:0;stroke-opacity:1" />
    <rect
       y="71.602539"
       x="76.582466"
       height="66.360893"
       width="44.561016"
       id="rect841"
       style="opacity:1;fill:#515151;fill-opacity:1;stroke:none;stroke-width:0.344729;stroke-linejoin:bevel;stroke-miterlimit:4;stroke-dasharray:none;stroke-dashoffset:0;stroke-opacity:1" />
    <text
       id="text845"
       y="75.784225"
       x="77.863098"
       style="font-style:normal;font-weight:normal;font-size:3.52778px;line-height:1.25;font-family:sans-serif;opacity:1;fill:#ffffff;fill-opacity:1;stroke:none;stroke-width:0.264583"
       xml:space="preserve"><tspan
         style="font-size:3.52778px;fill:#ffffff;fill-opacity:1;stroke-width:0.264583"
         y="75.784225"
         x="77.863098"
         id="tspan843"
         sodipodi:role="line">Perspective</tspan></text>
    <rect
       transform="rotate(-90)"
       style="opacity:1;fill:#6a97f2;fill-opacity:1;stroke:none;stroke-width:0.424147;stroke-linejoin:bevel;stroke-miterlimit:4;stroke-dasharray:none;stroke-dashoffset:0;stroke-opacity:1"
       id="rect847"
       width="1.8898809"
       height="40.701988"
       x="-107.43974"
       y="28.666372" />
    <rect
       style="opacity:1;fill:#515151;fill-opacity:1;stroke:none;stroke-width:0.196316;stroke-linejoin:bevel;stroke-miterlimit:4;stroke-dasharray:none;stroke-dashoffset:0;stroke-opacity:1"
       id="rect851"
       width="36.340034"
       height="26.389912"
       x="30.939739"
       y="109.40016" />
    <text
       xml:space="preserve"
       style="font-style:normal;font-weight:normal;font-size:3.52778px;line-height:1.25;font-family:sans-serif;opacity:1;fill:#ffffff;fill-opacity:1;stroke:none;stroke-width:0.264583"
       x="32.220371"
       y="113.58185"
       id="text855"><tspan
         sodipodi:role="line"
         id="tspan853"
         x="32.220371"
         y="113.58185"
         style="font-size:3.52778px;fill:#ffffff;fill-opacity:1;stroke-width:0.264583">Perspective</tspan></text>
    <rect
       y="74.248375"
       x="30.939739"
       height="28.941252"
       width="36.340034"
       id="rect857"
       style="opacity:1;fill:#515151;fill-opacity:1;stroke:none;stroke-width:0.205587;stroke-linejoin:bevel;stroke-miterlimit:4;stroke-dasharray:none;stroke-dashoffset:0;stroke-opacity:1" />
    <text
       id="text861"
       y="78.430061"
       x="32.220371"
       style="font-style:normal;font-weight:normal;font-size:3.52778px;line-height:1.25;font-family:sans-serif;opacity:1;fill:#ffffff;fill-opacity:1;stroke:none;stroke-width:0.264583"
       xml:space="preserve"><tspan
         style="font-size:3.52778px;fill:#ffffff;fill-opacity:1;stroke-width:0.264583"
         y="78.430061"
         x="32.220371"
         id="tspan859"
         sodipodi:role="line">Top</tspan></text>
    <rect
       y="71.594925"
       x="28.666372"
       height="66.376122"
       width="40.701988"
       id="rect863"
       style="opacity:1;fill:none;fill-opacity:1;stroke:#989898;stroke-width:0.329502;stroke-linejoin:bevel;stroke-miterlimit:4;stroke-dasharray:none;stroke-dashoffset:0;stroke-opacity:1" />
    <rect
       style="opacity:1;fill:none;fill-opacity:1;stroke:#000000;stroke-width:0.535182;stroke-linejoin:bevel;stroke-miterlimit:4;stroke-dasharray:none;stroke-dashoffset:0;stroke-opacity:1"
       id="rect865"
       width="98.681602"
       height="72.223274"
       x="25.687473"
       y="68.587769" />
    <g
       style="opacity:0.86087;stroke:#000000;stroke-width:0.1;stroke-linejoin:round;stroke-miterlimit:4;stroke-dasharray:none;stroke-opacity:1"
       id="g4483">
      <path
         transform="scale(0.26458333)"
         d="m 253.11719,349.31055 v 7.80273 h 46.19726 v -7.80273 z"
         style="color:#000000;font-style:normal;font-variant:normal;font-weight:normal;font-stretch:normal;font-size:medium;line-height:normal;font-family:sans-serif;font-variant-ligatures:normal;font-variant-position:normal;font-variant-caps:normal;font-variant-numeric:normal;font-variant-alternates:normal;font-variant-east-asian:normal;font-feature-settings:normal;font-variation-settings:normal;text-indent:0;text-align:start;text-decoration:none;text-decoration-line:none;text-decoration-style:solid;text-decoration-color:#000000;letter-spacing:normal;word-spacing:normal;text-transform:none;writing-mode:lr-tb;direction:ltr;text-orientation:mixed;dominant-baseline:auto;baseline-shift:baseline;text-anchor:start;white-space:normal;shape-padding:0;shape-margin:0;inline-size:0;clip-rule:nonzero;display:inline;overflow:visible;visibility:visible;isolation:auto;mix-blend-mode:normal;color-interpolation:sRGB;color-interpolation-filters:linearRGB;solid-color:#000000;solid-opacity:1;vector-effect:none;fill:#c4cfe6;fill-opacity:1;fill-rule:nonzero;stroke:#000000;stroke-width:0.377953;stroke-linecap:butt;stroke-linejoin:round;stroke-miterlimit:4;stroke-dasharray:none;stroke-dashoffset:0;stroke-opacity:1;color-rendering:auto;image-rendering:auto;shape-rendering:auto;text-rendering:auto;enable-background:accumulate;stop-color:#000000;stop-opacity:1"
         id="path4503" />
      <g
         style="stroke:#000000;stroke-width:0.1;stroke-linejoin:round;stroke-miterlimit:4;stroke-dasharray:none;stroke-opacity:1"
         id="g4485">
        <g
           style="opacity:1;stroke:#000000;stroke-width:0.1;stroke-linejoin:round;stroke-miterlimit:4;stroke-dasharray:none;stroke-opacity:1"
           id="g4497">
          <path
             id="path4499"
             d="m 75.216533,90.955714 6.768581,2.488979 -6.768582,2.488978 c 1.081337,-1.469492 1.075106,-3.480011 10e-7,-4.977957 z"
             style="color:#000000;font-style:normal;font-variant:normal;font-weight:normal;font-stretch:normal;font-size:medium;line-height:normal;font-family:sans-serif;font-variant-ligatures:normal;font-variant-position:normal;font-variant-caps:normal;font-variant-numeric:normal;font-variant-alternates:normal;font-variant-east-asian:normal;font-feature-settings:normal;font-variation-settings:normal;text-indent:0;text-align:start;text-decoration:none;text-decoration-line:none;text-decoration-style:solid;text-decoration-color:#000000;letter-spacing:normal;word-spacing:normal;text-transform:none;writing-mode:lr-tb;direction:ltr;text-orientation:mixed;dominant-baseline:auto;baseline-shift:baseline;text-anchor:start;white-space:normal;shape-padding:0;shape-margin:0;inline-size:0;clip-rule:nonzero;display:inline;overflow:visible;visibility:visible;isolation:auto;mix-blend-mode:normal;color-interpolation:sRGB;color-interpolation-filters:linearRGB;solid-color:#000000;solid-opacity:1;vector-effect:none;fill:#c4cfe6;fill-opacity:1;fill-rule:evenodd;stroke:#000000;stroke-width:0.1;stroke-linecap:butt;stroke-linejoin:round;stroke-miterlimit:4;stroke-dasharray:none;stroke-dashoffset:0;stroke-opacity:1;color-rendering:auto;image-rendering:auto;shape-rendering:auto;text-rendering:auto;enable-background:accumulate;stop-color:#000000;stop-opacity:1" />
          <path
             sodipodi:nodetypes="cccccccc"
             id="path4501"
             d="m 75.210938,90.761719 c -0.155547,0.0039 -0.243225,0.180344 -0.152344,0.30664 1.027465,1.431569 1.03312,3.348687 0.002,4.75 -0.114551,0.15462 0.04215,0.36355 0.222656,0.296875 l 6.769531,-2.488281 c 0.168779,-0.06228 0.168779,-0.300998 0,-0.363281 L 75.28325,90.773438 c -0.02312,-0.0085 -0.04765,-0.01244 -0.07227,-0.01172 z"
             style="color:#000000;font-style:normal;font-variant:normal;font-weight:normal;font-stretch:normal;font-size:medium;line-height:normal;font-family:sans-serif;font-variant-ligatures:normal;font-variant-position:normal;font-variant-caps:normal;font-variant-numeric:normal;font-variant-alternates:normal;font-variant-east-asian:normal;font-feature-settings:normal;font-variation-settings:normal;text-indent:0;text-align:start;text-decoration:none;text-decoration-line:none;text-decoration-style:solid;text-decoration-color:#000000;letter-spacing:normal;word-spacing:normal;text-transform:none;writing-mode:lr-tb;direction:ltr;text-orientation:mixed;dominant-baseline:auto;baseline-shift:baseline;text-anchor:start;white-space:normal;shape-padding:0;shape-margin:0;inline-size:0;clip-rule:nonzero;display:inline;overflow:visible;visibility:visible;isolation:auto;mix-blend-mode:normal;color-interpolation:sRGB;color-interpolation-filters:linearRGB;solid-color:#000000;solid-opacity:1;vector-effect:none;fill:#c4cfe6;fill-opacity:1;fill-rule:evenodd;stroke:#000000;stroke-width:0.1;stroke-linecap:butt;stroke-linejoin:round;stroke-miterlimit:4;stroke-dasharray:none;stroke-dashoffset:0;stroke-opacity:1;color-rendering:auto;image-rendering:auto;shape-rendering:auto;text-rendering:auto;enable-background:accumulate;stop-color:#000000;stop-opacity:1" />
        </g>
        <g
           style="opacity:1;stroke:#000000;stroke-width:0.1;stroke-linejoin:round;stroke-miterlimit:4;stroke-dasharray:none;stroke-opacity:1"
           id="g4489">
          <path
             id="path4491"
             d="m 70.946873,95.953512 -6.768581,-2.488979 6.768582,-2.488978 c -1.081337,1.469492 -1.075106,3.480011 -10e-7,4.977957 z"
             style="color:#000000;font-style:normal;font-variant:normal;font-weight:normal;font-stretch:normal;font-size:medium;line-height:normal;font-family:sans-serif;font-variant-ligatures:normal;font-variant-position:normal;font-variant-caps:normal;font-variant-numeric:normal;font-variant-alternates:normal;font-variant-east-asian:normal;font-feature-settings:normal;font-variation-settings:normal;text-indent:0;text-align:start;text-decoration:none;text-decoration-line:none;text-decoration-style:solid;text-decoration-color:#000000;letter-spacing:normal;word-spacing:normal;text-transform:none;writing-mode:lr-tb;direction:ltr;text-orientation:mixed;dominant-baseline:auto;baseline-shift:baseline;text-anchor:start;white-space:normal;shape-padding:0;shape-margin:0;inline-size:0;clip-rule:nonzero;display:inline;overflow:visible;visibility:visible;isolation:auto;mix-blend-mode:normal;color-interpolation:sRGB;color-interpolation-filters:linearRGB;solid-color:#000000;solid-opacity:1;vector-effect:none;fill:#c4cfe6;fill-opacity:1;fill-rule:evenodd;stroke:#000000;stroke-width:0.1;stroke-linecap:butt;stroke-linejoin:round;stroke-miterlimit:4;stroke-dasharray:none;stroke-dashoffset:0;stroke-opacity:1;color-rendering:auto;image-rendering:auto;shape-rendering:auto;text-rendering:auto;enable-background:accumulate;stop-color:#000000;stop-opacity:1" />
          <path
             sodipodi:nodetypes="cccccccc"
             id="path4493"
             d="m 70.929688,90.783203 c -0.01663,0.0011 -0.03304,0.0044 -0.04883,0.0098 l -6.769531,2.490234 c -0.168779,0.06228 -0.168779,0.300998 0,0.363281 l 6.769531,2.488282 c 0.178614,0.06383 0.332968,-0.140622 0.222657,-0.294922 -1.027465,-1.431569 -1.031167,-3.348687 0,-4.75 0.09767,-0.134456 -0.0083,-0.32139 -0.173828,-0.306641 z"
             style="color:#000000;font-style:normal;font-variant:normal;font-weight:normal;font-stretch:normal;font-size:medium;line-height:normal;font-family:sans-serif;font-variant-ligatures:normal;font-variant-position:normal;font-variant-caps:normal;font-variant-numeric:normal;font-variant-alternates:normal;font-variant-east-asian:normal;font-feature-settings:normal;font-variation-settings:normal;text-indent:0;text-align:start;text-decoration:none;text-decoration-line:none;text-decoration-style:solid;text-decoration-color:#000000;letter-spacing:normal;word-spacing:normal;text-transform:none;writing-mode:lr-tb;direction:ltr;text-orientation:mixed;dominant-baseline:auto;baseline-shift:baseline;text-anchor:start;white-space:normal;shape-padding:0;shape-margin:0;inline-size:0;clip-rule:nonzero;display:inline;overflow:visible;visibility:visible;isolation:auto;mix-blend-mode:normal;color-interpolation:sRGB;color-interpolation-filters:linearRGB;solid-color:#000000;solid-opacity:1;vector-effect:none;fill:#c4cfe6;fill-opacity:1;fill-rule:evenodd;stroke:#000000;stroke-width:0.1;stroke-linecap:butt;stroke-linejoin:round;stroke-miterlimit:4;stroke-dasharray:none;stroke-dashoffset:0;stroke-opacity:1;color-rendering:auto;image-rendering:auto;shape-rendering:auto;text-rendering:auto;enable-background:accumulate;stop-color:#000000;stop-opacity:1" />
        </g>
      </g>
    </g>
    <g
       transform="rotate(-90,71.447057,108.26101)"
       id="g4525"
       style="opacity:0.86087;stroke:#000000;stroke-width:0.1;stroke-linejoin:round;stroke-miterlimit:4;stroke-dasharray:none;stroke-opacity:1">
      <path
         id="path4509"
         style="color:#000000;font-style:normal;font-variant:normal;font-weight:normal;font-stretch:normal;font-size:medium;line-height:normal;font-family:sans-serif;font-variant-ligatures:normal;font-variant-position:normal;font-variant-caps:normal;font-variant-numeric:normal;font-variant-alternates:normal;font-variant-east-asian:normal;font-feature-settings:normal;font-variation-settings:normal;text-indent:0;text-align:start;text-decoration:none;text-decoration-line:none;text-decoration-style:solid;text-decoration-color:#000000;letter-spacing:normal;word-spacing:normal;text-transform:none;writing-mode:lr-tb;direction:ltr;text-orientation:mixed;dominant-baseline:auto;baseline-shift:baseline;text-anchor:start;white-space:normal;shape-padding:0;shape-margin:0;inline-size:0;clip-rule:nonzero;display:inline;overflow:visible;visibility:visible;isolation:auto;mix-blend-mode:normal;color-interpolation:sRGB;color-interpolation-filters:linearRGB;solid-color:#000000;solid-opacity:1;vector-effect:none;fill:#c4cfe6;fill-opacity:1;fill-rule:nonzero;stroke:#000000;stroke-width:0.377953;stroke-linecap:butt;stroke-linejoin:round;stroke-miterlimit:4;stroke-dasharray:none;stroke-dashoffset:0;stroke-opacity:1;color-rendering:auto;image-rendering:auto;shape-rendering:auto;text-rendering:auto;enable-background:accumulate;stop-color:#000000;stop-opacity:1"
         d="m 253.11719,349.31055 v 7.80273 h 46.19726 v -7.80273 z"
         transform="scale(0.26458333)" />
      <g
         id="g4523"
         style="stroke:#000000;stroke-width:0.1;stroke-linejoin:round;stroke-miterlimit:4;stroke-dasharray:none;stroke-opacity:1">
        <g
           id="g4515"
           style="opacity:1;stroke:#000000;stroke-width:0.1;stroke-linejoin:round;stroke-miterlimit:4;stroke-dasharray:none;stroke-opacity:1">
          <path
             style="color:#000000;font-style:normal;font-variant:normal;font-weight:normal;font-stretch:normal;font-size:medium;line-height:normal;font-family:sans-serif;font-variant-ligatures:normal;font-variant-position:normal;font-variant-caps:normal;font-variant-numeric:normal;font-variant-alternates:normal;font-variant-east-asian:normal;font-feature-settings:normal;font-variation-settings:normal;text-indent:0;text-align:start;text-decoration:none;text-decoration-line:none;text-decoration-style:solid;text-decoration-color:#000000;letter-spacing:normal;word-spacing:normal;text-transform:none;writing-mode:lr-tb;direction:ltr;text-orientation:mixed;dominant-baseline:auto;baseline-shift:baseline;text-anchor:start;white-space:normal;shape-padding:0;shape-margin:0;inline-size:0;clip-rule:nonzero;display:inline;overflow:visible;visibility:visible;isolation:auto;mix-blend-mode:normal;color-interpolation:sRGB;color-interpolation-filters:linearRGB;solid-color:#000000;solid-opacity:1;vector-effect:none;fill:#c4cfe6;fill-opacity:1;fill-rule:evenodd;stroke:#000000;stroke-width:0.1;stroke-linecap:butt;stroke-linejoin:round;stroke-miterlimit:4;stroke-dasharray:none;stroke-dashoffset:0;stroke-opacity:1;color-rendering:auto;image-rendering:auto;shape-rendering:auto;text-rendering:auto;enable-background:accumulate;stop-color:#000000;stop-opacity:1"
             d="m 75.216533,90.955714 6.768581,2.488979 -6.768582,2.488978 c 1.081337,-1.469492 1.075106,-3.480011 10e-7,-4.977957 z"
             id="path4511" />
          <path
             style="color:#000000;font-style:normal;font-variant:normal;font-weight:normal;font-stretch:normal;font-size:medium;line-height:normal;font-family:sans-serif;font-variant-ligatures:normal;font-variant-position:normal;font-variant-caps:normal;font-variant-numeric:normal;font-variant-alternates:normal;font-variant-east-asian:normal;font-feature-settings:normal;font-variation-settings:normal;text-indent:0;text-align:start;text-decoration:none;text-decoration-line:none;text-decoration-style:solid;text-decoration-color:#000000;letter-spacing:normal;word-spacing:normal;text-transform:none;writing-mode:lr-tb;direction:ltr;text-orientation:mixed;dominant-baseline:auto;baseline-shift:baseline;text-anchor:start;white-space:normal;shape-padding:0;shape-margin:0;inline-size:0;clip-rule:nonzero;display:inline;overflow:visible;visibility:visible;isolation:auto;mix-blend-mode:normal;color-interpolation:sRGB;color-interpolation-filters:linearRGB;solid-color:#000000;solid-opacity:1;vector-effect:none;fill:#c4cfe6;fill-opacity:1;fill-rule:evenodd;stroke:#000000;stroke-width:0.1;stroke-linecap:butt;stroke-linejoin:round;stroke-miterlimit:4;stroke-dasharray:none;stroke-dashoffset:0;stroke-opacity:1;color-rendering:auto;image-rendering:auto;shape-rendering:auto;text-rendering:auto;enable-background:accumulate;stop-color:#000000;stop-opacity:1"
             d="m 75.210938,90.761719 c -0.155547,0.0039 -0.243225,0.180344 -0.152344,0.30664 1.027465,1.431569 1.03312,3.348687 0.002,4.75 -0.114551,0.15462 0.04215,0.36355 0.222656,0.296875 l 6.769531,-2.488281 c 0.168779,-0.06228 0.168779,-0.300998 0,-0.363281 L 75.28325,90.773438 c -0.02312,-0.0085 -0.04765,-0.01244 -0.07227,-0.01172 z"
             id="path4513"
             sodipodi:nodetypes="cccccccc" />
        </g>
        <g
           id="g4521"
           style="opacity:1;stroke:#000000;stroke-width:0.1;stroke-linejoin:round;stroke-miterlimit:4;stroke-dasharray:none;stroke-opacity:1">
          <path
             style="color:#000000;font-style:normal;font-variant:normal;font-weight:normal;font-stretch:normal;font-size:medium;line-height:normal;font-family:sans-serif;font-variant-ligatures:normal;font-variant-position:normal;font-variant-caps:normal;font-variant-numeric:normal;font-variant-alternates:normal;font-variant-east-asian:normal;font-feature-settings:normal;font-variation-settings:normal;text-indent:0;text-align:start;text-decoration:none;text-decoration-line:none;text-decoration-style:solid;text-decoration-color:#000000;letter-spacing:normal;word-spacing:normal;text-transform:none;writing-mode:lr-tb;direction:ltr;text-orientation:mixed;dominant-baseline:auto;baseline-shift:baseline;text-anchor:start;white-space:normal;shape-padding:0;shape-margin:0;inline-size:0;clip-rule:nonzero;display:inline;overflow:visible;visibility:visible;isolation:auto;mix-blend-mode:normal;color-interpolation:sRGB;color-interpolation-filters:linearRGB;solid-color:#000000;solid-opacity:1;vector-effect:none;fill:#c4cfe6;fill-opacity:1;fill-rule:evenodd;stroke:#000000;stroke-width:0.1;stroke-linecap:butt;stroke-linejoin:round;stroke-miterlimit:4;stroke-dasharray:none;stroke-dashoffset:0;stroke-opacity:1;color-rendering:auto;image-rendering:auto;shape-rendering:auto;text-rendering:auto;enable-background:accumulate;stop-color:#000000;stop-opacity:1"
             d="m 70.946873,95.953512 -6.768581,-2.488979 6.768582,-2.488978 c -1.081337,1.469492 -1.075106,3.480011 -10e-7,4.977957 z"
             id="path4517" />
          <path
             style="color:#000000;font-style:normal;font-variant:normal;font-weight:normal;font-stretch:normal;font-size:medium;line-height:normal;font-family:sans-serif;font-variant-ligatures:normal;font-variant-position:normal;font-variant-caps:normal;font-variant-numeric:normal;font-variant-alternates:normal;font-variant-east-asian:normal;font-feature-settings:normal;font-variation-settings:normal;text-indent:0;text-align:start;text-decoration:none;text-decoration-line:none;text-decoration-style:solid;text-decoration-color:#000000;letter-spacing:normal;word-spacing:normal;text-transform:none;writing-mode:lr-tb;direction:ltr;text-orientation:mixed;dominant-baseline:auto;baseline-shift:baseline;text-anchor:start;white-space:normal;shape-padding:0;shape-margin:0;inline-size:0;clip-rule:nonzero;display:inline;overflow:visible;visibility:visible;isolation:auto;mix-blend-mode:normal;color-interpolation:sRGB;color-interpolation-filters:linearRGB;solid-color:#000000;solid-opacity:1;vector-effect:none;fill:#c4cfe6;fill-opacity:1;fill-rule:evenodd;stroke:#000000;stroke-width:0.1;stroke-linecap:butt;stroke-linejoin:round;stroke-miterlimit:4;stroke-dasharray:none;stroke-dashoffset:0;stroke-opacity:1;color-rendering:auto;image-rendering:auto;shape-rendering:auto;text-rendering:auto;enable-background:accumulate;stop-color:#000000;stop-opacity:1"
             d="m 70.929688,90.783203 c -0.01663,0.0011 -0.03304,0.0044 -0.04883,0.0098 l -6.769531,2.490234 c -0.168779,0.06228 -0.168779,0.300998 0,0.363281 l 6.769531,2.488282 c 0.178614,0.06383 0.332968,-0.140622 0.222657,-0.294922 -1.027465,-1.431569 -1.031167,-3.348687 0,-4.75 0.09767,-0.134456 -0.0083,-0.32139 -0.173828,-0.306641 z"
             id="path4519"
             sodipodi:nodetypes="cccccccc" />
        </g>
      </g>
    </g>
    <g
       style="opacity:0.86087;fill:none;fill-opacity:1;stroke:#838383;stroke-width:0.377953;stroke-linecap:butt;stroke-linejoin:round;stroke-miterlimit:4;stroke-dasharray:none;stroke-dashoffset:0;stroke-opacity:1"
       id="g4543">
      <path
         id="path4571"
         style="fill:none;fill-opacity:1;fill-rule:evenodd;stroke:#838383;stroke-linejoin:round;stroke-opacity:1"
         d="m 101.64109,107.93179 13.39574,-4.82104 v 17.11664 l -13.39574,2.73355 z" />
      <path
         id="path4573"
         style="fill:none;fill-opacity:1;fill-rule:evenodd;stroke:#838383;stroke-linejoin:round;stroke-opacity:1"
         d="m 81.779637,98.363641 v 17.769549 l 19.861453,6.82775 v -15.02915 z" />
      <path
         id="path4575"
         style="fill:none;fill-opacity:1;fill-rule:evenodd;stroke:#838383;stroke-linejoin:round;stroke-opacity:1"
         d="m 81.779637,98.363641 12.903397,-7.460365 20.353796,12.207474 -13.39574,4.82104 z" />
      <path
         id="path4577"
         style="fill:none;fill-opacity:1;fill-rule:evenodd;stroke:#838383;stroke-linejoin:round;stroke-opacity:1"
         d="m 81.779637,116.13319 12.903397,-4.46637 20.353796,8.56057 -13.39574,2.73355 z" />
      <path
         id="path4579"
         style="fill:none;fill-opacity:1;fill-rule:evenodd;stroke:#838383;stroke-linejoin:round;stroke-opacity:1"
         d="m 94.683034,90.903276 v 20.763544 l 20.353796,8.56057 v -17.11664 z" />
      <path
         id="path4581"
         style="fill:none;fill-opacity:1;fill-rule:evenodd;stroke:#838383;stroke-linejoin:round;stroke-opacity:1"
         d="m 81.779637,98.363641 12.903397,-7.460365 v 20.763544 l -12.903397,4.46637 z" />
    </g>
    <g
       transform="matrix(0.80755315,0,0,0.85589965,-7.3605087,16.697691)"
       style="opacity:0.86087;fill:none;fill-opacity:1;stroke:#838383;stroke-width:0.377953;stroke-linecap:butt;stroke-linejoin:round;stroke-miterlimit:4;stroke-dasharray:none;stroke-dashoffset:0;stroke-opacity:1"
       id="g4557">
      <path
         id="path4605"
         style="fill:none;fill-opacity:1;fill-rule:evenodd;stroke:#838383;stroke-linejoin:round;stroke-opacity:1"
         d="m 70.701374,124.58312 8.83388,-4.31568 -1.521892,14.02931 -8.671897,1.86254 z" />
      <path
         id="path4607"
         style="fill:none;fill-opacity:1;fill-rule:evenodd;stroke:#838383;stroke-linejoin:round;stroke-opacity:1"
         d="m 60.029826,121.84987 -1.608163,12.43461 10.919802,1.87481 1.359909,-11.57617 z" />
      <path
         id="path4609"
         style="fill:none;fill-opacity:1;fill-rule:evenodd;stroke:#838383;stroke-linejoin:round;stroke-opacity:1"
         d="m 60.029826,121.84987 7.163462,-5.36313 12.341966,3.7807 -8.83388,4.31568 z" />
      <path
         id="path4611"
         style="fill:none;fill-opacity:1;fill-rule:evenodd;stroke:#838383;stroke-linejoin:round;stroke-opacity:1"
         d="m 58.421663,134.28448 6.899045,-2.48784 12.692654,2.50011 -8.671897,1.86254 z" />
      <path
         id="path4613"
         style="fill:none;fill-opacity:1;fill-rule:evenodd;stroke:#838383;stroke-linejoin:round;stroke-opacity:1"
         d="m 67.193288,116.48674 -1.87258,15.3099 12.692654,2.50011 1.521892,-14.02931 z" />
      <path
         id="path4615"
         style="fill:none;fill-opacity:1;fill-rule:evenodd;stroke:#838383;stroke-linejoin:round;stroke-opacity:1"
         d="m 60.029826,121.84987 7.163462,-5.36313 -1.87258,15.3099 -6.899045,2.48784 z" />
    </g>
    <rect
       y="81.926346"
       x="42.522324"
       height="13.040178"
       width="13.134672"
       id="rect4619"
       style="opacity:0.86087;fill:none;fill-opacity:1;stroke:#838383;stroke-width:0.4;stroke-linecap:butt;stroke-linejoin:round;stroke-miterlimit:4;stroke-dasharray:none;stroke-dashoffset:0;stroke-opacity:1" />
  </g>
</svg>
